<?xml version="1.0" encoding="UTF-8"?>
<svg width="146px" height="40px" viewBox="0 0 146 40" version="1.1" xmlns="http://www.w3.org/2000/svg" xmlns:xlink="http://www.w3.org/1999/xlink">
    <!-- Generator: Sketch 52.4 (67378) - http://www.bohemiancoding.com/sketch -->
    <title>button - app store</title>
    <desc>Created with Sketch.</desc>
    <defs>
        <rect id="path-1" x="0" y="0" width="146" height="40" rx="4"></rect>
    </defs>
    <g id="Welcome" stroke="none" stroke-width="1" fill="none" fill-rule="evenodd">
        <g id="Home" transform="translate(-1159.000000, -3664.000000)">
            <g id="Footer" transform="translate(0.000000, 3521.000000)">
                <g id="Molecules-/-Buttons-/-appStore" transform="translate(1159.000000, 143.000000)">
                    <g id="Atoms-/-Buttons-/-_Resources-/-Shapes-/-Radius">
                        <mask id="mask-2" fill="white">
                            <use xlink:href="#path-1"></use>
                        </mask>
                        <use id="Mask" fill="#D8D8D8" fill-rule="evenodd" xlink:href="#path-1"></use>
                        <g id="Atoms-/-Colors-/-Accent" mask="url(#mask-2)" fill="#424B5A" fill-rule="evenodd">
                            <rect id="Rectangle-5" x="0" y="0" width="146" height="40"></rect>
                        </g>
                    </g>
                    <g id="Group" stroke-width="1" fill-rule="evenodd" transform="translate(20.000000, 6.000000)" fill="#FFFFFF">
                        <path d="M41.645,25.504 L39.374,25.504 L38.13,21.595 L33.806,21.595 L32.621,25.504 L30.41,25.504 L34.694,12.196 L37.34,12.196 L41.645,25.504 Z M37.755,19.955 L36.63,16.48 C36.511,16.125 36.288,15.289 35.959,13.973 L35.919,13.973 C35.788,14.539 35.577,15.375 35.287,16.48 L34.182,19.955 L37.755,19.955 Z M52.662,20.588 C52.662,22.22 52.221,23.51 51.339,24.457 C50.549,25.3 49.568,25.721 48.397,25.721 C47.133,25.721 46.225,25.267 45.672,24.359 L45.632,24.359 L45.632,29.414 L43.5,29.414 L43.5,19.067 C43.5,18.041 43.473,16.988 43.421,15.908 L45.296,15.908 L45.415,17.429 L45.455,17.429 C46.166,16.283 47.245,15.711 48.693,15.711 C49.825,15.711 50.77,16.158 51.526,17.053 C52.284,17.949 52.662,19.127 52.662,20.588 Z M50.49,20.666 C50.49,19.732 50.28,18.962 49.858,18.356 C49.397,17.724 48.778,17.408 48.002,17.408 C47.476,17.408 46.998,17.584 46.571,17.931 C46.143,18.281 45.863,18.738 45.732,19.304 C45.666,19.568 45.633,19.784 45.633,19.954 L45.633,21.554 C45.633,22.252 45.847,22.841 46.275,23.322 C46.703,23.803 47.259,24.043 47.943,24.043 C48.746,24.043 49.371,23.733 49.818,23.115 C50.266,22.496 50.49,21.68 50.49,20.666 Z M63.699,20.588 C63.699,22.22 63.258,23.51 62.375,24.457 C61.586,25.3 60.605,25.721 59.434,25.721 C58.17,25.721 57.262,25.267 56.71,24.359 L56.67,24.359 L56.67,29.414 L54.538,29.414 L54.538,19.067 C54.538,18.041 54.511,16.988 54.459,15.908 L56.334,15.908 L56.453,17.429 L56.493,17.429 C57.203,16.283 58.282,15.711 59.731,15.711 C60.862,15.711 61.807,16.158 62.565,17.053 C63.32,17.949 63.699,19.127 63.699,20.588 Z M61.527,20.666 C61.527,19.732 61.316,18.962 60.894,18.356 C60.433,17.724 59.816,17.408 59.039,17.408 C58.512,17.408 58.035,17.584 57.607,17.931 C57.179,18.281 56.9,18.738 56.769,19.304 C56.704,19.568 56.67,19.784 56.67,19.954 L56.67,21.554 C56.67,22.252 56.884,22.841 57.31,23.322 C57.738,23.802 58.294,24.043 58.98,24.043 C59.783,24.043 60.408,23.733 60.855,23.115 C61.303,22.496 61.527,21.68 61.527,20.666 Z M76.039,21.772 C76.039,22.904 75.646,23.825 74.857,24.536 C73.99,25.313 72.783,25.701 71.232,25.701 C69.8,25.701 68.652,25.425 67.783,24.872 L68.277,23.095 C69.213,23.661 70.24,23.945 71.359,23.945 C72.162,23.945 72.787,23.763 73.236,23.401 C73.683,23.039 73.906,22.553 73.906,21.947 C73.906,21.407 73.722,20.952 73.353,20.583 C72.986,20.214 72.373,19.871 71.517,19.554 C69.187,18.685 68.023,17.412 68.023,15.738 C68.023,14.644 68.431,13.747 69.248,13.049 C70.062,12.35 71.148,12.001 72.506,12.001 C73.717,12.001 74.723,12.212 75.526,12.633 L74.993,14.371 C74.243,13.963 73.395,13.759 72.446,13.759 C71.696,13.759 71.11,13.944 70.69,14.312 C70.335,14.641 70.157,15.042 70.157,15.517 C70.157,16.043 70.36,16.478 70.768,16.82 C71.123,17.136 71.768,17.478 72.704,17.847 C73.849,18.308 74.69,18.847 75.231,19.465 C75.77,20.081 76.039,20.852 76.039,21.772 Z M83.088,17.508 L80.738,17.508 L80.738,22.167 C80.738,23.352 81.152,23.944 81.982,23.944 C82.363,23.944 82.679,23.911 82.929,23.845 L82.988,25.464 C82.568,25.621 82.015,25.7 81.33,25.7 C80.488,25.7 79.83,25.443 79.355,24.93 C78.882,24.416 78.644,23.554 78.644,22.343 L78.644,17.506 L77.244,17.506 L77.244,15.906 L78.644,15.906 L78.644,14.149 L80.738,13.517 L80.738,15.906 L83.088,15.906 L83.088,17.508 Z M93.691,20.627 C93.691,22.102 93.269,23.313 92.427,24.26 C91.544,25.235 90.372,25.721 88.911,25.721 C87.503,25.721 86.382,25.254 85.546,24.32 C84.71,23.386 84.292,22.207 84.292,20.786 C84.292,19.299 84.722,18.081 85.585,17.134 C86.446,16.186 87.608,15.712 89.069,15.712 C90.477,15.712 91.61,16.179 92.465,17.114 C93.283,18.021 93.691,19.192 93.691,20.627 Z M91.479,20.696 C91.479,19.811 91.29,19.052 90.907,18.419 C90.46,17.653 89.821,17.271 88.993,17.271 C88.136,17.271 87.485,17.654 87.038,18.419 C86.655,19.053 86.466,19.824 86.466,20.736 C86.466,21.621 86.655,22.38 87.038,23.012 C87.499,23.778 88.143,24.16 88.974,24.16 C89.788,24.16 90.427,23.77 90.888,22.992 C91.281,22.347 91.479,21.58 91.479,20.696 Z M100.621,17.783 C100.41,17.744 100.185,17.724 99.949,17.724 C99.199,17.724 98.619,18.007 98.211,18.574 C97.856,19.074 97.678,19.706 97.678,20.469 L97.678,25.504 L95.547,25.504 L95.567,18.93 C95.567,17.824 95.54,16.817 95.487,15.909 L97.344,15.909 L97.422,17.745 L97.481,17.745 C97.706,17.114 98.061,16.606 98.547,16.225 C99.022,15.882 99.535,15.711 100.088,15.711 C100.285,15.711 100.463,15.725 100.621,15.75 L100.621,17.783 Z M110.156,20.252 C110.156,20.634 110.131,20.956 110.078,21.219 L103.682,21.219 C103.707,22.167 104.016,22.892 104.61,23.392 C105.149,23.839 105.846,24.063 106.702,24.063 C107.649,24.063 108.513,23.912 109.29,23.609 L109.624,25.089 C108.716,25.485 107.644,25.682 106.407,25.682 C104.919,25.682 103.751,25.244 102.901,24.369 C102.053,23.494 101.628,22.319 101.628,20.845 C101.628,19.398 102.023,18.193 102.814,17.232 C103.642,16.206 104.761,15.693 106.169,15.693 C107.552,15.693 108.599,16.206 109.31,17.232 C109.873,18.047 110.156,19.055 110.156,20.252 Z M108.123,19.699 C108.137,19.067 107.998,18.521 107.709,18.06 C107.34,17.467 106.773,17.171 106.01,17.171 C105.313,17.171 104.746,17.46 104.313,18.04 C103.958,18.501 103.747,19.054 103.682,19.698 L108.123,19.698 L108.123,19.699 Z" id="App-Store" fill-rule="nonzero"></path>
                        <path d="M37.05,4.009 C37.05,5.186 36.697,6.072 35.992,6.667 C35.339,7.216 34.411,7.491 33.209,7.491 C32.613,7.491 32.103,7.465 31.676,7.413 L31.676,0.982 C32.233,0.892 32.833,0.846 33.481,0.846 C34.626,0.846 35.489,1.095 36.071,1.593 C36.723,2.156 37.05,2.961 37.05,4.009 Z M35.945,4.038 C35.945,3.275 35.743,2.69 35.339,2.282 C34.935,1.875 34.345,1.671 33.568,1.671 C33.238,1.671 32.957,1.693 32.724,1.739 L32.724,6.628 C32.853,6.648 33.089,6.657 33.432,6.657 C34.234,6.657 34.853,6.434 35.289,5.988 C35.725,5.542 35.945,4.892 35.945,4.038 Z M42.909,5.037 C42.909,5.762 42.702,6.356 42.288,6.822 C41.854,7.301 41.279,7.54 40.561,7.54 C39.869,7.54 39.318,7.311 38.907,6.851 C38.497,6.392 38.292,5.813 38.292,5.115 C38.292,4.385 38.503,3.786 38.927,3.321 C39.351,2.856 39.921,2.623 40.639,2.623 C41.331,2.623 41.887,2.852 42.308,3.311 C42.708,3.757 42.909,4.333 42.909,5.037 Z M41.822,5.071 C41.822,4.636 41.728,4.263 41.541,3.952 C41.321,3.576 41.008,3.388 40.601,3.388 C40.18,3.388 39.86,3.576 39.64,3.952 C39.452,4.263 39.359,4.642 39.359,5.09 C39.359,5.525 39.453,5.898 39.64,6.209 C39.867,6.585 40.183,6.773 40.591,6.773 C40.991,6.773 41.305,6.582 41.531,6.199 C41.725,5.882 41.822,5.506 41.822,5.071 Z M50.765,2.719 L49.29,7.433 L48.33,7.433 L47.719,5.386 C47.564,4.875 47.438,4.367 47.34,3.863 L47.321,3.863 C47.23,4.381 47.104,4.888 46.942,5.386 L46.293,7.433 L45.322,7.433 L43.935,2.719 L45.012,2.719 L45.545,4.96 C45.674,5.49 45.78,5.995 45.865,6.473 L45.884,6.473 C45.962,6.079 46.091,5.577 46.273,4.97 L46.942,2.72 L47.796,2.72 L48.437,4.922 C48.592,5.459 48.718,5.976 48.815,6.474 L48.844,6.474 C48.915,5.989 49.022,5.472 49.164,4.922 L49.736,2.72 L50.765,2.72 L50.765,2.719 Z M56.198,7.433 L55.15,7.433 L55.15,4.733 C55.15,3.901 54.834,3.485 54.2,3.485 C53.889,3.485 53.638,3.599 53.443,3.828 C53.25,4.057 53.152,4.327 53.152,4.636 L53.152,7.432 L52.104,7.432 L52.104,4.066 C52.104,3.652 52.091,3.203 52.066,2.717 L52.987,2.717 L53.036,3.454 L53.065,3.454 C53.187,3.225 53.369,3.036 53.608,2.885 C53.892,2.709 54.21,2.62 54.558,2.62 C54.998,2.62 55.364,2.762 55.655,3.047 C56.017,3.396 56.198,3.917 56.198,4.609 L56.198,7.433 Z M59.088,7.433 L58.041,7.433 L58.041,0.556 L59.088,0.556 L59.088,7.433 Z M65.258,5.037 C65.258,5.762 65.051,6.356 64.637,6.822 C64.203,7.301 63.627,7.54 62.91,7.54 C62.217,7.54 61.666,7.311 61.256,6.851 C60.846,6.392 60.641,5.813 60.641,5.115 C60.641,4.385 60.852,3.786 61.276,3.321 C61.7,2.856 62.27,2.623 62.987,2.623 C63.68,2.623 64.235,2.852 64.657,3.311 C65.057,3.757 65.258,4.333 65.258,5.037 Z M64.17,5.071 C64.17,4.636 64.076,4.263 63.889,3.952 C63.67,3.576 63.356,3.388 62.95,3.388 C62.528,3.388 62.208,3.576 61.989,3.952 C61.801,4.263 61.708,4.642 61.708,5.09 C61.708,5.525 61.802,5.898 61.989,6.209 C62.216,6.585 62.532,6.773 62.94,6.773 C63.34,6.773 63.653,6.582 63.879,6.199 C64.074,5.882 64.17,5.506 64.17,5.071 Z M70.33,7.433 L69.389,7.433 L69.311,6.89 L69.282,6.89 C68.96,7.323 68.501,7.54 67.905,7.54 C67.46,7.54 67.1,7.397 66.829,7.113 C66.583,6.855 66.46,6.534 66.46,6.153 C66.46,5.577 66.7,5.138 67.183,4.834 C67.665,4.53 68.343,4.381 69.216,4.388 L69.216,4.3 C69.216,3.679 68.89,3.369 68.237,3.369 C67.772,3.369 67.362,3.486 67.008,3.718 L66.795,3.03 C67.233,2.759 67.774,2.623 68.412,2.623 C69.644,2.623 70.262,3.273 70.262,4.573 L70.262,6.309 C70.262,6.78 70.285,7.155 70.33,7.433 Z M69.242,5.813 L69.242,5.086 C68.086,5.066 67.508,5.383 67.508,6.036 C67.508,6.282 67.574,6.466 67.709,6.589 C67.844,6.712 68.016,6.773 68.221,6.773 C68.451,6.773 68.666,6.7 68.862,6.555 C69.059,6.409 69.18,6.224 69.225,5.997 C69.236,5.946 69.242,5.884 69.242,5.813 Z M76.285,7.433 L75.355,7.433 L75.306,6.676 L75.277,6.676 C74.98,7.252 74.474,7.54 73.763,7.54 C73.195,7.54 72.722,7.317 72.347,6.871 C71.972,6.425 71.785,5.846 71.785,5.135 C71.785,4.372 71.988,3.754 72.396,3.282 C72.791,2.842 73.275,2.622 73.851,2.622 C74.484,2.622 74.927,2.835 75.179,3.262 L75.199,3.262 L75.199,0.556 L76.248,0.556 L76.248,6.163 C76.248,6.622 76.26,7.045 76.285,7.433 Z M75.199,5.445 L75.199,4.659 C75.199,4.523 75.189,4.413 75.17,4.329 C75.111,4.077 74.984,3.865 74.791,3.694 C74.596,3.523 74.361,3.437 74.09,3.437 C73.699,3.437 73.393,3.592 73.168,3.903 C72.945,4.214 72.832,4.611 72.832,5.096 C72.832,5.562 72.939,5.94 73.154,6.231 C73.381,6.541 73.687,6.696 74.07,6.696 C74.414,6.696 74.689,6.567 74.898,6.308 C75.1,6.069 75.199,5.781 75.199,5.445 Z M85.248,5.037 C85.248,5.762 85.041,6.356 84.627,6.822 C84.193,7.301 83.619,7.54 82.9,7.54 C82.209,7.54 81.658,7.311 81.246,6.851 C80.836,6.392 80.631,5.813 80.631,5.115 C80.631,4.385 80.842,3.786 81.266,3.321 C81.69,2.856 82.26,2.623 82.979,2.623 C83.67,2.623 84.227,2.852 84.647,3.311 C85.047,3.757 85.248,4.333 85.248,5.037 Z M84.162,5.071 C84.162,4.636 84.068,4.263 83.881,3.952 C83.66,3.576 83.348,3.388 82.94,3.388 C82.52,3.388 82.2,3.576 81.979,3.952 C81.791,4.263 81.698,4.642 81.698,5.09 C81.698,5.525 81.792,5.898 81.979,6.209 C82.206,6.585 82.522,6.773 82.93,6.773 C83.33,6.773 83.645,6.582 83.871,6.199 C84.064,5.882 84.162,5.506 84.162,5.071 Z M90.883,7.433 L89.836,7.433 L89.836,4.733 C89.836,3.901 89.52,3.485 88.885,3.485 C88.574,3.485 88.323,3.599 88.129,3.828 C87.935,4.057 87.838,4.327 87.838,4.636 L87.838,7.432 L86.789,7.432 L86.789,4.066 C86.789,3.652 86.777,3.203 86.752,2.717 L87.672,2.717 L87.721,3.454 L87.75,3.454 C87.873,3.225 88.055,3.036 88.293,2.885 C88.578,2.709 88.895,2.62 89.244,2.62 C89.683,2.62 90.049,2.762 90.34,3.047 C90.703,3.396 90.883,3.917 90.883,4.609 L90.883,7.433 Z M97.936,3.504 L96.782,3.504 L96.782,5.794 C96.782,6.376 96.987,6.667 97.393,6.667 C97.581,6.667 97.737,6.651 97.86,6.618 L97.887,7.413 C97.68,7.491 97.408,7.53 97.073,7.53 C96.659,7.53 96.337,7.404 96.104,7.152 C95.87,6.9 95.754,6.476 95.754,5.881 L95.754,3.504 L95.065,3.504 L95.065,2.719 L95.754,2.719 L95.754,1.855 L96.781,1.545 L96.781,2.718 L97.935,2.718 L97.935,3.504 L97.936,3.504 Z M103.484,7.433 L102.435,7.433 L102.435,4.753 C102.435,3.908 102.119,3.485 101.486,3.485 C101,3.485 100.668,3.73 100.486,4.22 C100.455,4.323 100.437,4.449 100.437,4.597 L100.437,7.432 L99.39,7.432 L99.39,0.556 L100.437,0.556 L100.437,3.397 L100.457,3.397 C100.787,2.88 101.26,2.622 101.873,2.622 C102.307,2.622 102.666,2.764 102.951,3.049 C103.306,3.404 103.484,3.932 103.484,4.63 L103.484,7.433 Z M109.207,4.853 C109.207,5.041 109.193,5.199 109.168,5.328 L106.025,5.328 C106.039,5.794 106.189,6.149 106.48,6.395 C106.746,6.615 107.089,6.725 107.509,6.725 C107.974,6.725 108.398,6.651 108.78,6.502 L108.944,7.23 C108.497,7.424 107.971,7.521 107.362,7.521 C106.632,7.521 106.057,7.306 105.641,6.876 C105.223,6.446 105.016,5.869 105.016,5.145 C105.016,4.434 105.209,3.842 105.598,3.37 C106.004,2.866 106.553,2.614 107.246,2.614 C107.924,2.614 108.439,2.866 108.787,3.37 C109.068,3.77 109.207,4.265 109.207,4.853 Z M108.207,4.582 C108.215,4.271 108.146,4.003 108.004,3.777 C107.822,3.486 107.545,3.34 107.17,3.34 C106.828,3.34 106.549,3.482 106.336,3.767 C106.162,3.994 106.059,4.265 106.025,4.582 L108.207,4.582 Z" id="Download-on-the" fill-rule="nonzero"></path>
                        <g id="Apple" fill-rule="nonzero">
                            <path d="M18.128,13.784 C18.099,10.561 20.767,8.993 20.889,8.92 C19.378,6.717 17.036,6.416 16.213,6.392 C14.246,6.185 12.338,7.569 11.336,7.569 C10.314,7.569 8.771,6.412 7.108,6.446 C4.968,6.479 2.966,7.718 1.868,9.642 C-0.398,13.565 1.292,19.33 3.463,22.501 C4.549,24.054 5.818,25.788 7.479,25.727 C9.104,25.66 9.711,24.691 11.672,24.691 C13.615,24.691 14.185,25.727 15.879,25.688 C17.623,25.66 18.721,24.128 19.769,22.561 C21.024,20.781 21.528,19.028 21.548,18.938 C21.507,18.924 18.161,17.647 18.128,13.784 Z" id="Shape"></path>
                            <path d="M14.928,4.306 C15.802,3.213 16.4,1.726 16.234,0.217 C14.969,0.273 13.387,1.092 12.476,2.161 C11.67,3.103 10.95,4.647 11.136,6.099 C12.557,6.205 14.016,5.382 14.928,4.306 Z" id="Shape"></path>
                        </g>
                    </g>
                </g>
            </g>
        </g>
    </g>
</svg>